lip 09, 2022 4:39:25 PM Models.Database.PensionerDatabase <init>
INFO: Logger initialised
lip 09, 2022 4:39:25 PM Models.Database.PensionerDatabase <init>
INFO: Database init!
lip 09, 2022 4:39:25 PM Models.Database.PensionerDatabase getAllPensioners
WARNING: GetAllPensioners have been called!
