lip 09, 2022 4:39:25 PM Models.Database.StudentDatabase <init>
INFO: Logger initialised
lip 09, 2022 4:39:25 PM Models.Database.StudentDatabase <init>
INFO: Database init!
lip 09, 2022 4:39:25 PM Models.Database.StudentDatabase getAllStudents
WARNING: GetAllPensioners have been called!
