lip 09, 2022 4:39:25 PM Models.Database.WorkerDatabase <init>
INFO: Logger initialised
lip 09, 2022 4:39:25 PM Models.Database.WorkerDatabase <init>
INFO: Database init!
lip 09, 2022 4:39:25 PM Models.Database.WorkerDatabase getAllWorkers
WARNING: getAllWorkers have been called!
